/* XPM */
static char * Untitled_Frame 9 (replace)_xpm[] = {
"128 32 2 1",
" 	c #000000",
".	c #FFFFFF",
"                                                                                                                                ",
"           .                                                                                                                    ",
"           .                                                                                                                    ",
"          ...                                                                                                                   ",
"          ...                                                                                                                   ",
"         .....                                                                                                                  ",
"         .....                                                                                                                  ",
"         ......                                                                . .                                              ",
"         ......                                                    .           .                                                ",
"        . ......              ......                              ..           .                                                ",
"       .........             ..........    ...                   ...           .    .  .....    .                               ",
"       ..........            ...........   ....  ..              ...           . .  . ..   ..   .                      .        ",
"      ...........                   .....  .........    .....    ...  ...      . .  ...     ..  .         .  ..       ..        ",
"      ............             .... .....  ........  ..........  ..........    . .  ..       .  ..        .   ..     ..         ",
"     .............           ...........   .....   ............. ...........   . .  .        .  ..        .    ..    .          ",
"     ..............         ............  ....     .......  .... .....   ...   . .  .        .  ..        .     ..  ..          ",
"    ......   ......        ....    .....  ....    ......         ....     ..   . .  .        .   .        .      ....           ",
"    .....     .... .       ...      ....  ....   ......          ...      ..   .  . .        .   .        .       ..            ",
"    .....     .....        ....    .....  ....   ......          ...      ..   .  . .        ..  .        .       ..            ",
"   ......     ......        ............  ....    .....          ...      ..   .  . .        ..  .        .      ....           ",
"  .......     .......        ...........  ....     ....          ...      ..   .  . .         .  .        .     ..  ..          ",
"  .......     ........        ....  ....  ....     .....         ...      ..   .  . .         .  .        .    ..    ..         ",
" .......       ........               .   ....      .....   ...  ...      ..   .  .  .        .  ..      ..   ..      ..        ",
" .....           ......                              ........... ...      ..   .  .  .        .   ..    ...   .        .        ",
" ...                ....                              .........  ...      ..   .                   ...... .  ..                 ",
"...                   ..                                 ....    ...      .                                                     ",
".                       .                                                                                                       ",
"                                                                                                                               .",
"                                                                                                                                ",
"                                                                                                                                ",
"                                                                                                                                ",
"                                                                                                                                "};
