/* XPM */
static char * 005_xpm[] = {
"128 32 2 1",
" 	c #000000",
".	c #FFFFFF",
"                                                                                                                                ",
"                                                                                                                                ",
"                                                                                                                                ",
"      .                                                                                                                         ",
"    ..       .                                                                                                                  ",
"  .......                                                                                                                       ",
" ...             .                                              ..                                                              ",
"               .      ..                               ..            .            ..                                            ",
"             ..                               .....   .....   ...        . . ........                        ...                ",
"           ..                         ... ..........                ..         .. ..  ....                          .           ",
"          ..            ..      ... ..........                           ..           ..        .           .          .        ",
"        ...        .......    ... ........             .  .... .. .....                 .           .           .               ",
"       ...      .........   . .. .... .......... ....... ..    ...   ......           ...      .  .     . .    .                ",
"      ....    .... .....    ...    .. ........ . .    ..          ..      .... . .        . .                   .            .. ",
"      ..... ............   .........  ........ .               ......  .   .       . .  .  . .                   ..            .",
"     ..................   . ........       .. .         .......... ... . .           . .. ..     .     .          .             ",
"     ..................   . ........     .... .        ..   ..  .    . .  ..        .   . .      .                .             ",
"     .  ................  . ...... ..    .... .   .      ......        . .           . .. ..     .     .          .             ",
"     .. ....... ........  . .......  ......... .  ..               ..  .   .       . .  .    .  .                ..             ",
"      . ........  .......  ....    ..   ...  . . . .. ..          ..      .... . .          .  .     .                          ",
"      .. .........  ... ..  .. . .... ...     .. .  .... .     ...   ......   ....... ...      .  ..    ...    . .              ",
"       .. ..........     ...  ... ..   ... ........ ..  .. ... ...               ..       ...   .   .                      .... ",
"        .. ....   ......  ...   ...            .........    ....    ...  ..   ..              ..  .    .   ..          ..    .. ",
"         ..  ...      .........   ..                    ........... ..    .                 .          .                     .  ",
"..         ..  ...          .....    ..                                                              .                      .   ",
"    ..      ...   .                     ..                                                 . .                     .. .         ",
"        .........    .                     ..                                       .                              .            ",
"             .....      .                                                                                                       ",
".                          .                                                                                                    ",
"  .                            .                                                                                                ",
"....                                                                                                                            ",
"    .                                                                                                                           "};
