/* XPM */
static char * 021_xpm[] = {
"128 32 2 1",
" 	c #FFFFFF",
".	c #000000",
"................................................................................................................................",
"................................................................................................................................",
"................................................................................................................................",
"................................................................................................................................",
"................................................................................................................................",
"................................................................................................................................",
"................................................................................................................................",
"................................................................................................................................",
"................................................................................................................................",
"................................................................................................................................",
"................................................................................................................................",
"............. ..................................................................................................................",
"............. ..................................................................................................................",
"............   .................................................................................................................",
"............   .................................................  ............ .. ..............................................",
"...........     ...............................................   ............ .. ..............................................",
"...........     ...............................................   ............ .................................................",
"..........       ..............................................   ............ .................................................",
"...........      ..............        ....   ..   ...     ....   ..   ....... .. .. ..     .... ........ .. .......... ........",
".........  .      ............          ...       ..         ..  .       ..... .. .. .  ...  ... ........ ..  ........  ........",
".........         ............           ..       .           .           .... .. ..   .....  .. ........ ...  ......  .........",
"........           ..................    ..     ..      ..   ..     ...    ... .. ..  ....... .. ........ ....  ....  ..........",
"........           .............    .    ..    ...    .........    .....   ... .. .. ........ .. ........ .....  ..  ...........",
".......             ...........          ..   ...    ..........   ......   ... .. .. ........ .. ........ ......    ............",
".......             ..........           ..   ...    ..........   ......   ... .. .. ........ .. ........ .......  .............",
"......               ........    ...     ..   ...    ..........   ......   ... .. .. ........ .. ........ .......  .............",
"......      ...      ........   .....    ..   ...    ..........   ......   ... .. .. ........ .. ........ ......    ............",
".....      .....    . .......   .....    ..   ....    .........   ......   ... .. .. ........ .. ........ .....  ..  ...........",
".....      .....     ........    ...     ..   ....     ...   ..   ......   ... .. .. ........ .. .......  ....  ....  ..........",
"....       .....      ........        .  ..   .....           .   ......   ... .. .. ........ ..  .....   ...  ......  .........",
"...        .....       ........      .   ..   ......         ..   ......   ... .. .. ........ ...  ...  . ..  ........  ........",
"...        .....        ........    ..   ..   .........    ....   ......   ... .. .. ........ ....     .. .. .......... ........"};
